%YAML 1.1
%TAG !u! tag:unity3d.com,2011:
--- !u!1001 &3801983284679789266
PrefabInstance:
  m_ObjectHideFlags: 0
  serializedVersion: 2
  m_Modification:
    serializedVersion: 3
    m_TransformParent: {fileID: 0}
    m_Modifications:
    - target: {fileID: -9043682575956081918, guid: 278c0a9db8e6f85438793d78678e10cd, type: 3}
      propertyPath: attackPoints
      value: 30
      objectReference: {fileID: 0}
    - target: {fileID: 663241775637956246, guid: 278c0a9db8e6f85438793d78678e10cd, type: 3}
      propertyPath: m_Color.b
      value: 0.6686689
      objectReference: {fileID: 0}
    - target: {fileID: 663241775637956246, guid: 278c0a9db8e6f85438793d78678e10cd, type: 3}
      propertyPath: m_Color.g
      value: 0.6367924
      objectReference: {fileID: 0}
    - target: {fileID: 663241775637956246, guid: 278c0a9db8e6f85438793d78678e10cd, type: 3}
      propertyPath: m_Color.r
      value: 1
      objectReference: {fileID: 0}
    - target: {fileID: 2510784847507911175, guid: 278c0a9db8e6f85438793d78678e10cd, type: 3}
      propertyPath: m_LocalPosition.x
      value: 0
      objectReference: {fileID: 0}
    - target: {fileID: 2510784847507911175, guid: 278c0a9db8e6f85438793d78678e10cd, type: 3}
      propertyPath: m_LocalPosition.y
      value: 0
      objectReference: {fileID: 0}
    - target: {fileID: 2510784847507911175, guid: 278c0a9db8e6f85438793d78678e10cd, type: 3}
      propertyPath: m_LocalPosition.z
      value: 0
      objectReference: {fileID: 0}
    - target: {fileID: 2510784847507911175, guid: 278c0a9db8e6f85438793d78678e10cd, type: 3}
      propertyPath: m_LocalRotation.w
      value: 1
      objectReference: {fileID: 0}
    - target: {fileID: 2510784847507911175, guid: 278c0a9db8e6f85438793d78678e10cd, type: 3}
      propertyPath: m_LocalRotation.x
      value: 0
      objectReference: {fileID: 0}
    - target: {fileID: 2510784847507911175, guid: 278c0a9db8e6f85438793d78678e10cd, type: 3}
      propertyPath: m_LocalRotation.y
      value: 0
      objectReference: {fileID: 0}
    - target: {fileID: 2510784847507911175, guid: 278c0a9db8e6f85438793d78678e10cd, type: 3}
      propertyPath: m_LocalRotation.z
      value: 0
      objectReference: {fileID: 0}
    - target: {fileID: 2510784847507911175, guid: 278c0a9db8e6f85438793d78678e10cd, type: 3}
      propertyPath: m_LocalEulerAnglesHint.x
      value: 0
      objectReference: {fileID: 0}
    - target: {fileID: 2510784847507911175, guid: 278c0a9db8e6f85438793d78678e10cd, type: 3}
      propertyPath: m_LocalEulerAnglesHint.y
      value: 0
      objectReference: {fileID: 0}
    - target: {fileID: 2510784847507911175, guid: 278c0a9db8e6f85438793d78678e10cd, type: 3}
      propertyPath: m_LocalEulerAnglesHint.z
      value: 0
      objectReference: {fileID: 0}
    - target: {fileID: 4845309749052997074, guid: 278c0a9db8e6f85438793d78678e10cd, type: 3}
      propertyPath: explosionEffect
      value: 
      objectReference: {fileID: 984505445589168137, guid: 311ad3c5ea653474eb993152f54aed66, type: 3}
    - target: {fileID: 4845309749052997074, guid: 278c0a9db8e6f85438793d78678e10cd, type: 3}
      propertyPath: bigExplosionEffect
      value: 
      objectReference: {fileID: 984505445589168137, guid: 311ad3c5ea653474eb993152f54aed66, type: 3}
    - target: {fileID: 7488848753861633998, guid: 278c0a9db8e6f85438793d78678e10cd, type: 3}
      propertyPath: clips.Array.size
      value: 7
      objectReference: {fileID: 0}
    - target: {fileID: 7488848753861633998, guid: 278c0a9db8e6f85438793d78678e10cd, type: 3}
      propertyPath: clips.Array.data[7]
      value: 
      objectReference: {fileID: 8300000, guid: afd20c90f0df3b04ab8488410208036e, type: 3}
    - target: {fileID: 7532813709132004394, guid: 278c0a9db8e6f85438793d78678e10cd, type: 3}
      propertyPath: m_Name
      value: BulletEnemy
      objectReference: {fileID: 0}
    - target: {fileID: 7532813709132004394, guid: 278c0a9db8e6f85438793d78678e10cd, type: 3}
      propertyPath: m_Layer
      value: 16
      objectReference: {fileID: 0}
    - target: {fileID: 7532813709132004394, guid: 278c0a9db8e6f85438793d78678e10cd, type: 3}
      propertyPath: m_TagString
      value: Enemy
      objectReference: {fileID: 0}
    - target: {fileID: 8222322355670744622, guid: 278c0a9db8e6f85438793d78678e10cd, type: 3}
      propertyPath: m_Color.b
      value: 0.8157197
      objectReference: {fileID: 0}
    - target: {fileID: 8222322355670744622, guid: 278c0a9db8e6f85438793d78678e10cd, type: 3}
      propertyPath: m_Color.g
      value: 0.7311321
      objectReference: {fileID: 0}
    - target: {fileID: 8222322355670744622, guid: 278c0a9db8e6f85438793d78678e10cd, type: 3}
      propertyPath: m_Color.r
      value: 1
      objectReference: {fileID: 0}
    - target: {fileID: 8407342677228338875, guid: 278c0a9db8e6f85438793d78678e10cd, type: 3}
      propertyPath: m_ExcludeLayers.m_Bits
      value: 65792
      objectReference: {fileID: 0}
    m_RemovedComponents: []
    m_RemovedGameObjects: []
    m_AddedGameObjects: []
    m_AddedComponents:
    - targetCorrespondingSourceObject: {fileID: 7532813709132004394, guid: 278c0a9db8e6f85438793d78678e10cd, type: 3}
      insertIndex: 2
      addedObject: {fileID: 3244045079252848559}
  m_SourcePrefab: {fileID: 100100000, guid: 278c0a9db8e6f85438793d78678e10cd, type: 3}
--- !u!1 &6650327426512369400 stripped
GameObject:
  m_CorrespondingSourceObject: {fileID: 7532813709132004394, guid: 278c0a9db8e6f85438793d78678e10cd, type: 3}
  m_PrefabInstance: {fileID: 3801983284679789266}
  m_PrefabAsset: {fileID: 0}
--- !u!114 &3244045079252848559
MonoBehaviour:
  m_ObjectHideFlags: 0
  m_CorrespondingSourceObject: {fileID: 0}
  m_PrefabInstance: {fileID: 0}
  m_PrefabAsset: {fileID: 0}
  m_GameObject: {fileID: 6650327426512369400}
  m_Enabled: 1
  m_EditorHideFlags: 0
  m_Script: {fileID: 11500000, guid: 5a00d782dc84d4d48868b616cce6e46f, type: 3}
  m_Name: 
  m_EditorClassIdentifier: 
